@startuml

title __MODEL's Class Diagram__\n

  namespace fr.cnam.foad.nfa035.badges.gui {
    namespace model {
      class fr.cnam.foad.nfa035.badges.gui.model.BadgesModel {
          - badges : List<DigitalBadge>
          - entetes : String[]
          {static} - serialVersionUID : long
          + BadgesModel()
          + addBadge()
          + getBadges()
          + getColumnClass()
          + getColumnCount()
          + getColumnName()
          + getRowCount()
          + getValueAt()
          + setBadges()
      }
    }
  }
  

  namespace fr.cnam.foad.nfa035.badges.gui {
    namespace model {
      class fr.cnam.foad.nfa035.badges.gui.model.BadgesWalletDAOFactory {
          {static} - RESOURCES_PATH : String
          + getObjectType()
          # createInstance()
      }
    }
  }
  

  fr.cnam.foad.nfa035.badges.gui.model.BadgesModel -up-|> javax.swing.table.AbstractTableModel
  fr.cnam.foad.nfa035.badges.gui.model.BadgesWalletDAOFactory -up-|> org.springframework.beans.factory.config.AbstractFactoryBean


right footer


PlantUML diagram generated by SketchIt! (https://bitbucket.org/pmesmeur/sketch.it)
For more information about this tool, please contact philippe.mesmeur@gmail.com
endfooter

@enduml
